…
``` r
bing_words_counts <- tidy_narratives %>% 
  inner_join(get_sentiments("bing")) %>% 
  count(word, sentiment, sort = T) %>% 
  ungroup()
```

    ## Joining, by = "word"

``` r
bing_words_counts
```

    ## # A tibble: 390 x 3
    ##    word         sentiment     n
    ##    <chr>        <chr>     <int>
    ##  1 trump        positive     44
    ##  2 like         positive     22
    ##  3 hate         negative     17
    ##  4 right        positive     17
    ##  5 support      positive     15
    ##  6 love         positive     14
    ##  7 conservative negative     11
    ##  8 good         positive     10
    ##  9 great        positive     10
    ## 10 proud        positive      9
    ## # ... with 380 more rows
…
